{
    "grade_p2": [
        {
            "year": "2022",
            "held": "1",
            "data": [
                {
                    "name": "2022\u5e74\u5ea6 \u7b2c3\u56de \u554f\u984c\u518a\u5b50",
                    "type": "\u89e3\u7b54",
                    "link": "https://www.eiken.or.jp/eiken/exam/grade_p2/pdf/202203/2022-3-1ji-p2kyu.pdf"
                },
                {
                    "name": "2022\u5e74\u5ea6 \u7b2c3\u56de \u30ea\u30b9\u30cb\u30f3\u30b0\u539f\u7a3f",
                    "type": "\u89e3\u7b54",
                    "link": "https://www.eiken.or.jp/eiken/exam/grade_p2/pdf/202203/2022-3-1ji-p2kyu-script.pdf"
                },
                {
                    "name": "\u30ea\u30b9\u30cb\u30f3\u30b0\u97f3\u6e90\uff08\u7b2c1\u90e8\uff09",
                    "type": "\u89e3\u7b54",
                    "link": "http://media.eiken.or.jp/listening/grade_p2/202203/P2Q-part1.mp3"
                },
                {
                    "name": "\u30ea\u30b9\u30cb\u30f3\u30b0\u97f3\u6e90\uff08\u7b2c2\u90e8\uff09",
                    "type": "\u89e3\u7b54",
                    "link": "http://media.eiken.or.jp/listening/grade_p2/202203/P2Q-part2.mp3"
                },
                {
                    "name": "\u30ea\u30b9\u30cb\u30f3\u30b0\u97f3\u6e90\uff08\u7b2c3\u90e8\uff09",
                    "type": "\u89e3\u7b54",
                    "link": "http://media.eiken.or.jp/listening/grade_p2/202203/P2Q-part3.mp3"
                },
                {
                    "name": "2022\u5e74\u5ea6 \u7b2c3\u56de \u89e3\u7b54",
                    "type": "\u89e3\u7b54",
                    "link": "https://www.eiken.or.jp/eiken/exam/grade_p2/pdf/202203/p2kyu-sun.pdf"
                },
                {
                    "name": "2022\u5e74\u5ea6 \u7b2c2\u56de \u554f\u984c\u518a\u5b50",
                    "type": "\u89e3\u7b54",
                    "link": "https://www.eiken.or.jp/eiken/exam/grade_p2/pdf/202202/2022-2-1ji-p2kyu.pdf"
                },
                {
                    "name": "2022\u5e74\u5ea6 \u7b2c2\u56de \u30ea\u30b9\u30cb\u30f3\u30b0\u539f\u7a3f",
                    "type": "\u89e3\u7b54",
                    "link": "https://www.eiken.or.jp/eiken/exam/grade_p2/pdf/202202/2022-2-1ji-p2kyu-script.pdf"
                },
                {
                    "name": "\u30ea\u30b9\u30cb\u30f3\u30b0\u97f3\u6e90\uff08\u7b2c1\u90e8\uff09",
                    "type": "\u89e3\u7b54",
                    "link": "http://media.eiken.or.jp/listening/grade_p2/202202/P2Q-part1.mp3"
                },
                {
                    "name": "\u30ea\u30b9\u30cb\u30f3\u30b0\u97f3\u6e90\uff08\u7b2c2\u90e8\uff09",
                    "type": "\u89e3\u7b54",
                    "link": "http://media.eiken.or.jp/listening/grade_p2/202202/P2Q-part2.mp3"
                },
                {
                    "name": "\u30ea\u30b9\u30cb\u30f3\u30b0\u97f3\u6e90\uff08\u7b2c3\u90e8\uff09",
                    "type": "\u89e3\u7b54",
                    "link": "http://media.eiken.or.jp/listening/grade_p2/202202/P2Q-part3.mp3"
                },
                {
                    "name": "2022\u5e74\u5ea6 \u7b2c2\u56de \u89e3\u7b54",
                    "type": "\u89e3\u7b54",
                    "link": "https://www.eiken.or.jp/eiken/exam/grade_p2/pdf/202202/p2kyu-sun.pdf"
                },
                {
                    "name": "2022\u5e74\u5ea6 \u7b2c1\u56de \u554f\u984c\u518a\u5b50",
                    "type": "\u89e3\u7b54",
                    "link": "https://www.eiken.or.jp/eiken/exam/grade_p2/pdf/202201/2022-1-1ji-p2kyu.pdf"
                },
                {
                    "name": "2022\u5e74\u5ea6 \u7b2c1\u56de \u30ea\u30b9\u30cb\u30f3\u30b0\u539f\u7a3f",
                    "type": "\u89e3\u7b54",
                    "link": "https://www.eiken.or.jp/eiken/exam/grade_p2/pdf/202201/2022-1-1ji-p2kyu-script.pdf"
                },
                {
                    "name": "\u30ea\u30b9\u30cb\u30f3\u30b0\u97f3\u6e90\uff08\u7b2c1\u90e8\uff09",
                    "type": "\u89e3\u7b54",
                    "link": "http://media.eiken.or.jp/listening/grade_p2/202201/P2Q-part1.mp3"
                },
                {
                    "name": "\u30ea\u30b9\u30cb\u30f3\u30b0\u97f3\u6e90\uff08\u7b2c2\u90e8\uff09",
                    "type": "\u89e3\u7b54",
                    "link": "http://media.eiken.or.jp/listening/grade_p2/202201/P2Q-part2.mp3"
                },
                {
                    "name": "\u30ea\u30b9\u30cb\u30f3\u30b0\u97f3\u6e90\uff08\u7b2c3\u90e8\uff09",
                    "type": "\u89e3\u7b54",
                    "link": "http://media.eiken.or.jp/listening/grade_p2/202201/P2Q-part3.mp3"
                },
                {
                    "name": "2022\u5e74\u5ea6 \u7b2c1\u56de \u89e3\u7b54",
                    "type": "\u89e3\u7b54",
                    "link": "https://www.eiken.or.jp/eiken/exam/grade_p2/pdf/202201/p2kyu-sun.pdf"
                },
                {
                    "name": "\u554f\u984c\u3068\u89e3\u7b54\u306e\u30b5\u30f3\u30d7\u30eb",
                    "type": "\u89e3\u7b54",
                    "link": "https://www.eiken.or.jp/eiken/exam/virtual/grade_p2/pdf/grade_p2.pdf"
                }
            ]
        }
    ]
}